﻿ 
<div class="additional_details" style="width:100%;  line-height: 1.5;">
	<div class="titile-area" style="float:left; width: 100%; ">
	   <h2 style="color:#0e3a7d; line-height: 0px; float: left; font-weight: 800; font-size: 20px;margin-bottom: 10px; margin-left: 20px; text-transform:capitalize;">App Discount</h2>
	</div>
	<div class="form-area" style="width:96%; float: left; font-size:16px; padding-left: 20px;margin-bottom:5px; margin-bottom:5px; border-bottom:1px solid #CCCCCC; ">
	   <div class="form-left" style="float:left; width:50%; color:#666666; font-weight:600;">
		  <p style="">App launch discount<span style="float:right;">:</span></p> 
		  
		 
	   </div>
	   <div class="form-right" style="color:#666666; margin-left:10px; float: left;">
		  <p>(&#163; DISCOUNT)</p> 
		  
	   </div>
	</div>
</div>

<div style="clear: both;"></div>