﻿ 
<div class="additional_details" style="width:100%;">
	<div class="titile-area" style="float:left; width: 100%; ">
	   <h2 style="color:#0e3a7d; line-height: 0px; float: left; font-weight: 800; font-size: 20px; margin-left: 20px; text-transform:capitalize;">Additional charges</h2>
	</div>
	<div class="form-area" style="background:#ebebeb;width:96%; float: left; font-size:16px; padding: 20px;margin-top:5px; margin-bottom:0px; border-bottom:1px solid #CCCCCC; ">
	   <div class="form-left" style="float:left; width:50%; color:#666666; font-weight:600; line-height: 1;">
		  <p style="">Booking Fee<span style="float:right;">:</span></p> 
		   <p style="">Payment Status<span style="float:right;">:</span></p> 
		 
	   </div>
	   <div class="form-right" style="color:#666666; margin-left:10px; float: left; line-height: 1;">
		  <p>&#163;  BOOKINGFEE</p> 
		   <p>PAYMENT-STATUS</p> 
	   </div> 

	   COMMENT

	</div>
	
</div>
<div style="clear: both;"></div>