﻿<div class="additional_details" style="width:100%;">
                        <div class="form-area" style="width:97%; float: left; font-size:17px; padding-left: 20px; margin-bottom:20px;">
                           <div class="form-left" style="float:left; width:50%; color:#666666; border-right: 1px solid #ccc;">
                              <img src="http://ba-dock.org/abcd/I/temp_images/vehicle-png-18.png" style="width: 80%; margin-top: 10px;" alt="car"/>
                              <h2 style="text-align: center; line-height: 1; color: #0e3a7d; font-size: 17px;">Saloon Car</h2>
                              <div class="additional_details" style="width:100%;">
                                 <div class="form-area" style="width:97%; float: left; font-size:16px; margin-bottom:20px;">
                                    <div class="form-left" style="float:left; width:50%; color:#666666; font-weight:600; line-height: 5px;">
                                       <p style="">  Reg No:<span style="float:right;">:</span></p>
                                       <p style=""> Colour  <span style="float:right;">:</span></p>
                                    </div>
                                    <div class="form-right" style="color:#666666; margin-left:10px; width: 45%; float: left; line-height: 7px;">
                                       <p style="">L061LZG</p>
                                       <p style="">Grey</p>
                                    </div>
                                 </div>
                              </div>
                           </div>
                           <div class="form-right" style="color:#666666; margin-left:10px; float: left; line-height: 8px; width:46%;">
                              <img src="http://ba-dock.org/abcd/I/temp_images/man.jpg" alt="drivar" style="margin: 0 auto; border-radius: 50%; width: 120px; height: 120px; margin-left: 25%; margin-bottom: 10px;"/>
                              <h2 style="text-align: center; line-height: 1; color: #0e3a7d; font-size: 17px;">Muhammad Khalid Rashild</h2>
                              <div class="additional_details" style="width:100%;">
                                 <div class="form-area" style="width:97%; float: left; font-size:16px; margin-bottom:20px;">
                                    <div class="form-left" style="float:left; width:65%; color:#666666; font-weight:600; line-height: 5px;">
                                       <p style="">TFL Licence No<span style="float:right;">:</span></p>
                                    </div>
                                    <div class="form-right" style="color:#666666; margin-left:10px; width: 29%; float: left; line-height: 7px;">
                                       <p style="">205756</p>
                                    </div>
                                 </div>
                              </div>
                           </div>
                        </div>
                     </div>
                  </div>
               </div>