--------NEW Ip-> 192.168.8.187-------------------NEW Ip-> 192.168.8.187-----07/01/2019 11:51:45---------------------------NEW Ip-> 192.168.8.187------------------NEW Ip-> 192.168.8.187-------------

NEW IP -> 192.168.8.187
----------------------------------------------INNER EXCEPTION--------------------------------------------------------------------------------------------------------------------------
NEW Ip-> 192.168.8.187
----------------------------------------------STACK-TRACE------------------------------------------------------------------------------------------------------------------------------
NEW IP ->192.168.8.187



--------NEW Ip-> 192.168.8.187-------------------NEW Ip-> 192.168.8.187-----07/01/2019 16:36:12---------------------------NEW Ip-> 192.168.8.187------------------NEW Ip-> 192.168.8.187-------------

NEW IP -> 192.168.8.187
----------------------------------------------INNER EXCEPTION--------------------------------------------------------------------------------------------------------------------------
NEW Ip-> 192.168.8.187
----------------------------------------------STACK-TRACE------------------------------------------------------------------------------------------------------------------------------
NEW IP ->192.168.8.187



--------CustomerSearch-------------------CustomerSearch-----07/01/2019 17:01:02---------------------------CustomerSearch------------------CustomerSearch-------------

An error occurred while executing the command definition. See the inner exception for details.
----------------------------------------------INNER EXCEPTION--------------------------------------------------------------------------------------------------------------------------
Execution Timeout Expired.  The timeout period elapsed prior to completion of the operation or the server is not responding.
----------------------------------------------STACK-TRACE------------------------------------------------------------------------------------------------------------------------------
   at System.Data.Entity.Core.EntityClient.Internal.EntityCommandDefinition.ExecuteStoreCommands(EntityCommand entityCommand, CommandBehavior behavior)
   at System.Data.Entity.Core.Objects.ObjectContext.CreateFunctionObjectResult[TElement](EntityCommand entityCommand, ReadOnlyCollection`1 entitySets, EdmType[] edmTypes, ExecutionOptions executionOptions)
   at System.Data.Entity.Core.Objects.ObjectContext.<>c__DisplayClass47`1.<ExecuteFunction>b__46()
   at System.Data.Entity.Core.Objects.ObjectContext.ExecuteInTransaction[T](Func`1 func, IDbExecutionStrategy executionStrategy, Boolean startLocalTransaction, Boolean releaseConnectionOnSuccess)
   at System.Data.Entity.Core.Objects.ObjectContext.<>c__DisplayClass47`1.<ExecuteFunction>b__45()
   at System.Data.Entity.SqlServer.DefaultSqlExecutionStrategy.Execute[TResult](Func`1 operation)
   at System.Data.Entity.Core.Objects.ObjectContext.ExecuteFunction[TElement](String functionName, ExecutionOptions executionOptions, ObjectParameter[] parameters)
   at System.Data.Entity.Core.Objects.ObjectContext.ExecuteFunction[TElement](String functionName, MergeOption mergeOption, ObjectParameter[] parameters)
   at System.Data.Entity.Core.Objects.ObjectContext.ExecuteFunction[TElement](String functionName, ObjectParameter[] parameters)
   at SwaranAdmin_New.DataManager.BATransferEntities.CustomerSearchNew(String sEARCHWORD) in E:\BaTransfer_Full_Project\SwaranAdmin\SwaranAdmin\SwaranAdmin_New\DataManager\BATransfer.Context.cs:line 594
   at SwaranAdmin_New.DataAccess.MemberDal.CustomerSearch(String search) in E:\BaTransfer_Full_Project\SwaranAdmin\SwaranAdmin\SwaranAdmin_New\DataAccess\MemberDal.cs:line 281



--------CustomerSearch-------------------CustomerSearch-----07/01/2019 17:01:03---------------------------CustomerSearch------------------CustomerSearch-------------

An error occurred while executing the command definition. See the inner exception for details.
----------------------------------------------INNER EXCEPTION--------------------------------------------------------------------------------------------------------------------------
Execution Timeout Expired.  The timeout period elapsed prior to completion of the operation or the server is not responding.
----------------------------------------------STACK-TRACE------------------------------------------------------------------------------------------------------------------------------
   at System.Data.Entity.Core.EntityClient.Internal.EntityCommandDefinition.ExecuteStoreCommands(EntityCommand entityCommand, CommandBehavior behavior)
   at System.Data.Entity.Core.Objects.ObjectContext.CreateFunctionObjectResult[TElement](EntityCommand entityCommand, ReadOnlyCollection`1 entitySets, EdmType[] edmTypes, ExecutionOptions executionOptions)
   at System.Data.Entity.Core.Objects.ObjectContext.<>c__DisplayClass47`1.<ExecuteFunction>b__46()
   at System.Data.Entity.Core.Objects.ObjectContext.ExecuteInTransaction[T](Func`1 func, IDbExecutionStrategy executionStrategy, Boolean startLocalTransaction, Boolean releaseConnectionOnSuccess)
   at System.Data.Entity.Core.Objects.ObjectContext.<>c__DisplayClass47`1.<ExecuteFunction>b__45()
   at System.Data.Entity.SqlServer.DefaultSqlExecutionStrategy.Execute[TResult](Func`1 operation)
   at System.Data.Entity.Core.Objects.ObjectContext.ExecuteFunction[TElement](String functionName, ExecutionOptions executionOptions, ObjectParameter[] parameters)
   at System.Data.Entity.Core.Objects.ObjectContext.ExecuteFunction[TElement](String functionName, MergeOption mergeOption, ObjectParameter[] parameters)
   at System.Data.Entity.Core.Objects.ObjectContext.ExecuteFunction[TElement](String functionName, ObjectParameter[] parameters)
   at SwaranAdmin_New.DataManager.BATransferEntities.CustomerSearchNew(String sEARCHWORD) in E:\BaTransfer_Full_Project\SwaranAdmin\SwaranAdmin\SwaranAdmin_New\DataManager\BATransfer.Context.cs:line 594
   at SwaranAdmin_New.DataAccess.MemberDal.CustomerSearch(String search) in E:\BaTransfer_Full_Project\SwaranAdmin\SwaranAdmin\SwaranAdmin_New\DataAccess\MemberDal.cs:line 281



--------CustomerSearch-------------------CustomerSearch-----07/01/2019 17:01:06---------------------------CustomerSearch------------------CustomerSearch-------------

An error occurred while executing the command definition. See the inner exception for details.
----------------------------------------------INNER EXCEPTION--------------------------------------------------------------------------------------------------------------------------
Execution Timeout Expired.  The timeout period elapsed prior to completion of the operation or the server is not responding.
----------------------------------------------STACK-TRACE------------------------------------------------------------------------------------------------------------------------------
   at System.Data.Entity.Core.EntityClient.Internal.EntityCommandDefinition.ExecuteStoreCommands(EntityCommand entityCommand, CommandBehavior behavior)
   at System.Data.Entity.Core.Objects.ObjectContext.CreateFunctionObjectResult[TElement](EntityCommand entityCommand, ReadOnlyCollection`1 entitySets, EdmType[] edmTypes, ExecutionOptions executionOptions)
   at System.Data.Entity.Core.Objects.ObjectContext.<>c__DisplayClass47`1.<ExecuteFunction>b__46()
   at System.Data.Entity.Core.Objects.ObjectContext.ExecuteInTransaction[T](Func`1 func, IDbExecutionStrategy executionStrategy, Boolean startLocalTransaction, Boolean releaseConnectionOnSuccess)
   at System.Data.Entity.Core.Objects.ObjectContext.<>c__DisplayClass47`1.<ExecuteFunction>b__45()
   at System.Data.Entity.SqlServer.DefaultSqlExecutionStrategy.Execute[TResult](Func`1 operation)
   at System.Data.Entity.Core.Objects.ObjectContext.ExecuteFunction[TElement](String functionName, ExecutionOptions executionOptions, ObjectParameter[] parameters)
   at System.Data.Entity.Core.Objects.ObjectContext.ExecuteFunction[TElement](String functionName, MergeOption mergeOption, ObjectParameter[] parameters)
   at System.Data.Entity.Core.Objects.ObjectContext.ExecuteFunction[TElement](String functionName, ObjectParameter[] parameters)
   at SwaranAdmin_New.DataManager.BATransferEntities.CustomerSearchNew(String sEARCHWORD) in E:\BaTransfer_Full_Project\SwaranAdmin\SwaranAdmin\SwaranAdmin_New\DataManager\BATransfer.Context.cs:line 594
   at SwaranAdmin_New.DataAccess.MemberDal.CustomerSearch(String search) in E:\BaTransfer_Full_Project\SwaranAdmin\SwaranAdmin\SwaranAdmin_New\DataAccess\MemberDal.cs:line 281



--------CustomerSearch-------------------CustomerSearch-----07/01/2019 17:01:07---------------------------CustomerSearch------------------CustomerSearch-------------

An error occurred while executing the command definition. See the inner exception for details.
----------------------------------------------INNER EXCEPTION--------------------------------------------------------------------------------------------------------------------------
Execution Timeout Expired.  The timeout period elapsed prior to completion of the operation or the server is not responding.
----------------------------------------------STACK-TRACE------------------------------------------------------------------------------------------------------------------------------
   at System.Data.Entity.Core.EntityClient.Internal.EntityCommandDefinition.ExecuteStoreCommands(EntityCommand entityCommand, CommandBehavior behavior)
   at System.Data.Entity.Core.Objects.ObjectContext.CreateFunctionObjectResult[TElement](EntityCommand entityCommand, ReadOnlyCollection`1 entitySets, EdmType[] edmTypes, ExecutionOptions executionOptions)
   at System.Data.Entity.Core.Objects.ObjectContext.<>c__DisplayClass47`1.<ExecuteFunction>b__46()
   at System.Data.Entity.Core.Objects.ObjectContext.ExecuteInTransaction[T](Func`1 func, IDbExecutionStrategy executionStrategy, Boolean startLocalTransaction, Boolean releaseConnectionOnSuccess)
   at System.Data.Entity.Core.Objects.ObjectContext.<>c__DisplayClass47`1.<ExecuteFunction>b__45()
   at System.Data.Entity.SqlServer.DefaultSqlExecutionStrategy.Execute[TResult](Func`1 operation)
   at System.Data.Entity.Core.Objects.ObjectContext.ExecuteFunction[TElement](String functionName, ExecutionOptions executionOptions, ObjectParameter[] parameters)
   at System.Data.Entity.Core.Objects.ObjectContext.ExecuteFunction[TElement](String functionName, MergeOption mergeOption, ObjectParameter[] parameters)
   at System.Data.Entity.Core.Objects.ObjectContext.ExecuteFunction[TElement](String functionName, ObjectParameter[] parameters)
   at SwaranAdmin_New.DataManager.BATransferEntities.CustomerSearchNew(String sEARCHWORD) in E:\BaTransfer_Full_Project\SwaranAdmin\SwaranAdmin\SwaranAdmin_New\DataManager\BATransfer.Context.cs:line 594
   at SwaranAdmin_New.DataAccess.MemberDal.CustomerSearch(String search) in E:\BaTransfer_Full_Project\SwaranAdmin\SwaranAdmin\SwaranAdmin_New\DataAccess\MemberDal.cs:line 281



--------CustomerSearch-------------------CustomerSearch-----07/01/2019 17:01:07---------------------------CustomerSearch------------------CustomerSearch-------------

An error occurred while executing the command definition. See the inner exception for details.
----------------------------------------------INNER EXCEPTION--------------------------------------------------------------------------------------------------------------------------
Execution Timeout Expired.  The timeout period elapsed prior to completion of the operation or the server is not responding.
----------------------------------------------STACK-TRACE------------------------------------------------------------------------------------------------------------------------------
   at System.Data.Entity.Core.EntityClient.Internal.EntityCommandDefinition.ExecuteStoreCommands(EntityCommand entityCommand, CommandBehavior behavior)
   at System.Data.Entity.Core.Objects.ObjectContext.CreateFunctionObjectResult[TElement](EntityCommand entityCommand, ReadOnlyCollection`1 entitySets, EdmType[] edmTypes, ExecutionOptions executionOptions)
   at System.Data.Entity.Core.Objects.ObjectContext.<>c__DisplayClass47`1.<ExecuteFunction>b__46()
   at System.Data.Entity.Core.Objects.ObjectContext.ExecuteInTransaction[T](Func`1 func, IDbExecutionStrategy executionStrategy, Boolean startLocalTransaction, Boolean releaseConnectionOnSuccess)
   at System.Data.Entity.Core.Objects.ObjectContext.<>c__DisplayClass47`1.<ExecuteFunction>b__45()
   at System.Data.Entity.SqlServer.DefaultSqlExecutionStrategy.Execute[TResult](Func`1 operation)
   at System.Data.Entity.Core.Objects.ObjectContext.ExecuteFunction[TElement](String functionName, ExecutionOptions executionOptions, ObjectParameter[] parameters)
   at System.Data.Entity.Core.Objects.ObjectContext.ExecuteFunction[TElement](String functionName, MergeOption mergeOption, ObjectParameter[] parameters)
   at System.Data.Entity.Core.Objects.ObjectContext.ExecuteFunction[TElement](String functionName, ObjectParameter[] parameters)
   at SwaranAdmin_New.DataManager.BATransferEntities.CustomerSearchNew(String sEARCHWORD) in E:\BaTransfer_Full_Project\SwaranAdmin\SwaranAdmin\SwaranAdmin_New\DataManager\BATransfer.Context.cs:line 594
   at SwaranAdmin_New.DataAccess.MemberDal.CustomerSearch(String search) in E:\BaTransfer_Full_Project\SwaranAdmin\SwaranAdmin\SwaranAdmin_New\DataAccess\MemberDal.cs:line 281



--------CustomerSearch-------------------CustomerSearch-----07/01/2019 17:01:07---------------------------CustomerSearch------------------CustomerSearch-------------

An error occurred while executing the command definition. See the inner exception for details.
----------------------------------------------INNER EXCEPTION--------------------------------------------------------------------------------------------------------------------------
Execution Timeout Expired.  The timeout period elapsed prior to completion of the operation or the server is not responding.
----------------------------------------------STACK-TRACE------------------------------------------------------------------------------------------------------------------------------
   at System.Data.Entity.Core.EntityClient.Internal.EntityCommandDefinition.ExecuteStoreCommands(EntityCommand entityCommand, CommandBehavior behavior)
   at System.Data.Entity.Core.Objects.ObjectContext.CreateFunctionObjectResult[TElement](EntityCommand entityCommand, ReadOnlyCollection`1 entitySets, EdmType[] edmTypes, ExecutionOptions executionOptions)
   at System.Data.Entity.Core.Objects.ObjectContext.<>c__DisplayClass47`1.<ExecuteFunction>b__46()
   at System.Data.Entity.Core.Objects.ObjectContext.ExecuteInTransaction[T](Func`1 func, IDbExecutionStrategy executionStrategy, Boolean startLocalTransaction, Boolean releaseConnectionOnSuccess)
   at System.Data.Entity.Core.Objects.ObjectContext.<>c__DisplayClass47`1.<ExecuteFunction>b__45()
   at System.Data.Entity.SqlServer.DefaultSqlExecutionStrategy.Execute[TResult](Func`1 operation)
   at System.Data.Entity.Core.Objects.ObjectContext.ExecuteFunction[TElement](String functionName, ExecutionOptions executionOptions, ObjectParameter[] parameters)
   at System.Data.Entity.Core.Objects.ObjectContext.ExecuteFunction[TElement](String functionName, MergeOption mergeOption, ObjectParameter[] parameters)
   at System.Data.Entity.Core.Objects.ObjectContext.ExecuteFunction[TElement](String functionName, ObjectParameter[] parameters)
   at SwaranAdmin_New.DataManager.BATransferEntities.CustomerSearchNew(String sEARCHWORD) in E:\BaTransfer_Full_Project\SwaranAdmin\SwaranAdmin\SwaranAdmin_New\DataManager\BATransfer.Context.cs:line 594
   at SwaranAdmin_New.DataAccess.MemberDal.CustomerSearch(String search) in E:\BaTransfer_Full_Project\SwaranAdmin\SwaranAdmin\SwaranAdmin_New\DataAccess\MemberDal.cs:line 281



--------CustomerSearch-------------------CustomerSearch-----07/01/2019 17:01:07---------------------------CustomerSearch------------------CustomerSearch-------------

An error occurred while executing the command definition. See the inner exception for details.
----------------------------------------------INNER EXCEPTION--------------------------------------------------------------------------------------------------------------------------
Execution Timeout Expired.  The timeout period elapsed prior to completion of the operation or the server is not responding.
----------------------------------------------STACK-TRACE------------------------------------------------------------------------------------------------------------------------------
   at System.Data.Entity.Core.EntityClient.Internal.EntityCommandDefinition.ExecuteStoreCommands(EntityCommand entityCommand, CommandBehavior behavior)
   at System.Data.Entity.Core.Objects.ObjectContext.CreateFunctionObjectResult[TElement](EntityCommand entityCommand, ReadOnlyCollection`1 entitySets, EdmType[] edmTypes, ExecutionOptions executionOptions)
   at System.Data.Entity.Core.Objects.ObjectContext.<>c__DisplayClass47`1.<ExecuteFunction>b__46()
   at System.Data.Entity.Core.Objects.ObjectContext.ExecuteInTransaction[T](Func`1 func, IDbExecutionStrategy executionStrategy, Boolean startLocalTransaction, Boolean releaseConnectionOnSuccess)
   at System.Data.Entity.Core.Objects.ObjectContext.<>c__DisplayClass47`1.<ExecuteFunction>b__45()
   at System.Data.Entity.SqlServer.DefaultSqlExecutionStrategy.Execute[TResult](Func`1 operation)
   at System.Data.Entity.Core.Objects.ObjectContext.ExecuteFunction[TElement](String functionName, ExecutionOptions executionOptions, ObjectParameter[] parameters)
   at System.Data.Entity.Core.Objects.ObjectContext.ExecuteFunction[TElement](String functionName, MergeOption mergeOption, ObjectParameter[] parameters)
   at System.Data.Entity.Core.Objects.ObjectContext.ExecuteFunction[TElement](String functionName, ObjectParameter[] parameters)
   at SwaranAdmin_New.DataManager.BATransferEntities.CustomerSearchNew(String sEARCHWORD) in E:\BaTransfer_Full_Project\SwaranAdmin\SwaranAdmin\SwaranAdmin_New\DataManager\BATransfer.Context.cs:line 594
   at SwaranAdmin_New.DataAccess.MemberDal.CustomerSearch(String search) in E:\BaTransfer_Full_Project\SwaranAdmin\SwaranAdmin\SwaranAdmin_New\DataAccess\MemberDal.cs:line 281



--------CustomerSearch-------------------CustomerSearch-----07/01/2019 17:01:09---------------------------CustomerSearch------------------CustomerSearch-------------

An error occurred while executing the command definition. See the inner exception for details.
----------------------------------------------INNER EXCEPTION--------------------------------------------------------------------------------------------------------------------------
Execution Timeout Expired.  The timeout period elapsed prior to completion of the operation or the server is not responding.
----------------------------------------------STACK-TRACE------------------------------------------------------------------------------------------------------------------------------
   at System.Data.Entity.Core.EntityClient.Internal.EntityCommandDefinition.ExecuteStoreCommands(EntityCommand entityCommand, CommandBehavior behavior)
   at System.Data.Entity.Core.Objects.ObjectContext.CreateFunctionObjectResult[TElement](EntityCommand entityCommand, ReadOnlyCollection`1 entitySets, EdmType[] edmTypes, ExecutionOptions executionOptions)
   at System.Data.Entity.Core.Objects.ObjectContext.<>c__DisplayClass47`1.<ExecuteFunction>b__46()
   at System.Data.Entity.Core.Objects.ObjectContext.ExecuteInTransaction[T](Func`1 func, IDbExecutionStrategy executionStrategy, Boolean startLocalTransaction, Boolean releaseConnectionOnSuccess)
   at System.Data.Entity.Core.Objects.ObjectContext.<>c__DisplayClass47`1.<ExecuteFunction>b__45()
   at System.Data.Entity.SqlServer.DefaultSqlExecutionStrategy.Execute[TResult](Func`1 operation)
   at System.Data.Entity.Core.Objects.ObjectContext.ExecuteFunction[TElement](String functionName, ExecutionOptions executionOptions, ObjectParameter[] parameters)
   at System.Data.Entity.Core.Objects.ObjectContext.ExecuteFunction[TElement](String functionName, MergeOption mergeOption, ObjectParameter[] parameters)
   at System.Data.Entity.Core.Objects.ObjectContext.ExecuteFunction[TElement](String functionName, ObjectParameter[] parameters)
   at SwaranAdmin_New.DataManager.BATransferEntities.CustomerSearchNew(String sEARCHWORD) in E:\BaTransfer_Full_Project\SwaranAdmin\SwaranAdmin\SwaranAdmin_New\DataManager\BATransfer.Context.cs:line 594
   at SwaranAdmin_New.DataAccess.MemberDal.CustomerSearch(String search) in E:\BaTransfer_Full_Project\SwaranAdmin\SwaranAdmin\SwaranAdmin_New\DataAccess\MemberDal.cs:line 281



--------CustomerSearch-------------------CustomerSearch-----07/01/2019 17:01:09---------------------------CustomerSearch------------------CustomerSearch-------------

An error occurred while executing the command definition. See the inner exception for details.
----------------------------------------------INNER EXCEPTION--------------------------------------------------------------------------------------------------------------------------
Execution Timeout Expired.  The timeout period elapsed prior to completion of the operation or the server is not responding.
----------------------------------------------STACK-TRACE------------------------------------------------------------------------------------------------------------------------------
   at System.Data.Entity.Core.EntityClient.Internal.EntityCommandDefinition.ExecuteStoreCommands(EntityCommand entityCommand, CommandBehavior behavior)
   at System.Data.Entity.Core.Objects.ObjectContext.CreateFunctionObjectResult[TElement](EntityCommand entityCommand, ReadOnlyCollection`1 entitySets, EdmType[] edmTypes, ExecutionOptions executionOptions)
   at System.Data.Entity.Core.Objects.ObjectContext.<>c__DisplayClass47`1.<ExecuteFunction>b__46()
   at System.Data.Entity.Core.Objects.ObjectContext.ExecuteInTransaction[T](Func`1 func, IDbExecutionStrategy executionStrategy, Boolean startLocalTransaction, Boolean releaseConnectionOnSuccess)
   at System.Data.Entity.Core.Objects.ObjectContext.<>c__DisplayClass47`1.<ExecuteFunction>b__45()
   at System.Data.Entity.SqlServer.DefaultSqlExecutionStrategy.Execute[TResult](Func`1 operation)
   at System.Data.Entity.Core.Objects.ObjectContext.ExecuteFunction[TElement](String functionName, ExecutionOptions executionOptions, ObjectParameter[] parameters)
   at System.Data.Entity.Core.Objects.ObjectContext.ExecuteFunction[TElement](String functionName, MergeOption mergeOption, ObjectParameter[] parameters)
   at System.Data.Entity.Core.Objects.ObjectContext.ExecuteFunction[TElement](String functionName, ObjectParameter[] parameters)
   at SwaranAdmin_New.DataManager.BATransferEntities.CustomerSearchNew(String sEARCHWORD) in E:\BaTransfer_Full_Project\SwaranAdmin\SwaranAdmin\SwaranAdmin_New\DataManager\BATransfer.Context.cs:line 594
   at SwaranAdmin_New.DataAccess.MemberDal.CustomerSearch(String search) in E:\BaTransfer_Full_Project\SwaranAdmin\SwaranAdmin\SwaranAdmin_New\DataAccess\MemberDal.cs:line 281



--------CustomerSearch-------------------CustomerSearch-----07/01/2019 17:02:08---------------------------CustomerSearch------------------CustomerSearch-------------

An error occurred while executing the command definition. See the inner exception for details.
----------------------------------------------INNER EXCEPTION--------------------------------------------------------------------------------------------------------------------------
Execution Timeout Expired.  The timeout period elapsed prior to completion of the operation or the server is not responding.
----------------------------------------------STACK-TRACE------------------------------------------------------------------------------------------------------------------------------
   at System.Data.Entity.Core.EntityClient.Internal.EntityCommandDefinition.ExecuteStoreCommands(EntityCommand entityCommand, CommandBehavior behavior)
   at System.Data.Entity.Core.Objects.ObjectContext.CreateFunctionObjectResult[TElement](EntityCommand entityCommand, ReadOnlyCollection`1 entitySets, EdmType[] edmTypes, ExecutionOptions executionOptions)
   at System.Data.Entity.Core.Objects.ObjectContext.<>c__DisplayClass47`1.<ExecuteFunction>b__46()
   at System.Data.Entity.Core.Objects.ObjectContext.ExecuteInTransaction[T](Func`1 func, IDbExecutionStrategy executionStrategy, Boolean startLocalTransaction, Boolean releaseConnectionOnSuccess)
   at System.Data.Entity.Core.Objects.ObjectContext.<>c__DisplayClass47`1.<ExecuteFunction>b__45()
   at System.Data.Entity.SqlServer.DefaultSqlExecutionStrategy.Execute[TResult](Func`1 operation)
   at System.Data.Entity.Core.Objects.ObjectContext.ExecuteFunction[TElement](String functionName, ExecutionOptions executionOptions, ObjectParameter[] parameters)
   at System.Data.Entity.Core.Objects.ObjectContext.ExecuteFunction[TElement](String functionName, MergeOption mergeOption, ObjectParameter[] parameters)
   at System.Data.Entity.Core.Objects.ObjectContext.ExecuteFunction[TElement](String functionName, ObjectParameter[] parameters)
   at SwaranAdmin_New.DataManager.BATransferEntities.CustomerSearchNew(String sEARCHWORD) in E:\BaTransfer_Full_Project\SwaranAdmin\SwaranAdmin\SwaranAdmin_New\DataManager\BATransfer.Context.cs:line 594
   at SwaranAdmin_New.DataAccess.MemberDal.CustomerSearch(String search) in E:\BaTransfer_Full_Project\SwaranAdmin\SwaranAdmin\SwaranAdmin_New\DataAccess\MemberDal.cs:line 281



--------CustomerSearch-------------------CustomerSearch-----07/01/2019 17:02:09---------------------------CustomerSearch------------------CustomerSearch-------------

An error occurred while executing the command definition. See the inner exception for details.
----------------------------------------------INNER EXCEPTION--------------------------------------------------------------------------------------------------------------------------
Execution Timeout Expired.  The timeout period elapsed prior to completion of the operation or the server is not responding.
----------------------------------------------STACK-TRACE------------------------------------------------------------------------------------------------------------------------------
   at System.Data.Entity.Core.EntityClient.Internal.EntityCommandDefinition.ExecuteStoreCommands(EntityCommand entityCommand, CommandBehavior behavior)
   at System.Data.Entity.Core.Objects.ObjectContext.CreateFunctionObjectResult[TElement](EntityCommand entityCommand, ReadOnlyCollection`1 entitySets, EdmType[] edmTypes, ExecutionOptions executionOptions)
   at System.Data.Entity.Core.Objects.ObjectContext.<>c__DisplayClass47`1.<ExecuteFunction>b__46()
   at System.Data.Entity.Core.Objects.ObjectContext.ExecuteInTransaction[T](Func`1 func, IDbExecutionStrategy executionStrategy, Boolean startLocalTransaction, Boolean releaseConnectionOnSuccess)
   at System.Data.Entity.Core.Objects.ObjectContext.<>c__DisplayClass47`1.<ExecuteFunction>b__45()
   at System.Data.Entity.SqlServer.DefaultSqlExecutionStrategy.Execute[TResult](Func`1 operation)
   at System.Data.Entity.Core.Objects.ObjectContext.ExecuteFunction[TElement](String functionName, ExecutionOptions executionOptions, ObjectParameter[] parameters)
   at System.Data.Entity.Core.Objects.ObjectContext.ExecuteFunction[TElement](String functionName, MergeOption mergeOption, ObjectParameter[] parameters)
   at System.Data.Entity.Core.Objects.ObjectContext.ExecuteFunction[TElement](String functionName, ObjectParameter[] parameters)
   at SwaranAdmin_New.DataManager.BATransferEntities.CustomerSearchNew(String sEARCHWORD) in E:\BaTransfer_Full_Project\SwaranAdmin\SwaranAdmin\SwaranAdmin_New\DataManager\BATransfer.Context.cs:line 594
   at SwaranAdmin_New.DataAccess.MemberDal.CustomerSearch(String search) in E:\BaTransfer_Full_Project\SwaranAdmin\SwaranAdmin\SwaranAdmin_New\DataAccess\MemberDal.cs:line 281



--------CustomerSearch-------------------CustomerSearch-----07/01/2019 17:02:10---------------------------CustomerSearch------------------CustomerSearch-------------

An error occurred while executing the command definition. See the inner exception for details.
----------------------------------------------INNER EXCEPTION--------------------------------------------------------------------------------------------------------------------------
Execution Timeout Expired.  The timeout period elapsed prior to completion of the operation or the server is not responding.
----------------------------------------------STACK-TRACE------------------------------------------------------------------------------------------------------------------------------
   at System.Data.Entity.Core.EntityClient.Internal.EntityCommandDefinition.ExecuteStoreCommands(EntityCommand entityCommand, CommandBehavior behavior)
   at System.Data.Entity.Core.Objects.ObjectContext.CreateFunctionObjectResult[TElement](EntityCommand entityCommand, ReadOnlyCollection`1 entitySets, EdmType[] edmTypes, ExecutionOptions executionOptions)
   at System.Data.Entity.Core.Objects.ObjectContext.<>c__DisplayClass47`1.<ExecuteFunction>b__46()
   at System.Data.Entity.Core.Objects.ObjectContext.ExecuteInTransaction[T](Func`1 func, IDbExecutionStrategy executionStrategy, Boolean startLocalTransaction, Boolean releaseConnectionOnSuccess)
   at System.Data.Entity.Core.Objects.ObjectContext.<>c__DisplayClass47`1.<ExecuteFunction>b__45()
   at System.Data.Entity.SqlServer.DefaultSqlExecutionStrategy.Execute[TResult](Func`1 operation)
   at System.Data.Entity.Core.Objects.ObjectContext.ExecuteFunction[TElement](String functionName, ExecutionOptions executionOptions, ObjectParameter[] parameters)
   at System.Data.Entity.Core.Objects.ObjectContext.ExecuteFunction[TElement](String functionName, MergeOption mergeOption, ObjectParameter[] parameters)
   at System.Data.Entity.Core.Objects.ObjectContext.ExecuteFunction[TElement](String functionName, ObjectParameter[] parameters)
   at SwaranAdmin_New.DataManager.BATransferEntities.CustomerSearchNew(String sEARCHWORD) in E:\BaTransfer_Full_Project\SwaranAdmin\SwaranAdmin\SwaranAdmin_New\DataManager\BATransfer.Context.cs:line 594
   at SwaranAdmin_New.DataAccess.MemberDal.CustomerSearch(String search) in E:\BaTransfer_Full_Project\SwaranAdmin\SwaranAdmin\SwaranAdmin_New\DataAccess\MemberDal.cs:line 281



--------CustomerSearch-------------------CustomerSearch-----07/01/2019 17:02:10---------------------------CustomerSearch------------------CustomerSearch-------------

An error occurred while executing the command definition. See the inner exception for details.
----------------------------------------------INNER EXCEPTION--------------------------------------------------------------------------------------------------------------------------
Execution Timeout Expired.  The timeout period elapsed prior to completion of the operation or the server is not responding.
----------------------------------------------STACK-TRACE------------------------------------------------------------------------------------------------------------------------------
   at System.Data.Entity.Core.EntityClient.Internal.EntityCommandDefinition.ExecuteStoreCommands(EntityCommand entityCommand, CommandBehavior behavior)
   at System.Data.Entity.Core.Objects.ObjectContext.CreateFunctionObjectResult[TElement](EntityCommand entityCommand, ReadOnlyCollection`1 entitySets, EdmType[] edmTypes, ExecutionOptions executionOptions)
   at System.Data.Entity.Core.Objects.ObjectContext.<>c__DisplayClass47`1.<ExecuteFunction>b__46()
   at System.Data.Entity.Core.Objects.ObjectContext.ExecuteInTransaction[T](Func`1 func, IDbExecutionStrategy executionStrategy, Boolean startLocalTransaction, Boolean releaseConnectionOnSuccess)
   at System.Data.Entity.Core.Objects.ObjectContext.<>c__DisplayClass47`1.<ExecuteFunction>b__45()
   at System.Data.Entity.SqlServer.DefaultSqlExecutionStrategy.Execute[TResult](Func`1 operation)
   at System.Data.Entity.Core.Objects.ObjectContext.ExecuteFunction[TElement](String functionName, ExecutionOptions executionOptions, ObjectParameter[] parameters)
   at System.Data.Entity.Core.Objects.ObjectContext.ExecuteFunction[TElement](String functionName, MergeOption mergeOption, ObjectParameter[] parameters)
   at System.Data.Entity.Core.Objects.ObjectContext.ExecuteFunction[TElement](String functionName, ObjectParameter[] parameters)
   at SwaranAdmin_New.DataManager.BATransferEntities.CustomerSearchNew(String sEARCHWORD) in E:\BaTransfer_Full_Project\SwaranAdmin\SwaranAdmin\SwaranAdmin_New\DataManager\BATransfer.Context.cs:line 594
   at SwaranAdmin_New.DataAccess.MemberDal.CustomerSearch(String search) in E:\BaTransfer_Full_Project\SwaranAdmin\SwaranAdmin\SwaranAdmin_New\DataAccess\MemberDal.cs:line 281



--------CustomerSearch-------------------CustomerSearch-----07/01/2019 17:48:05---------------------------CustomerSearch------------------CustomerSearch-------------

An error occurred while executing the command definition. See the inner exception for details.
----------------------------------------------INNER EXCEPTION--------------------------------------------------------------------------------------------------------------------------
Execution Timeout Expired.  The timeout period elapsed prior to completion of the operation or the server is not responding.
----------------------------------------------STACK-TRACE------------------------------------------------------------------------------------------------------------------------------
   at System.Data.Entity.Core.EntityClient.Internal.EntityCommandDefinition.ExecuteStoreCommands(EntityCommand entityCommand, CommandBehavior behavior)
   at System.Data.Entity.Core.Objects.ObjectContext.CreateFunctionObjectResult[TElement](EntityCommand entityCommand, ReadOnlyCollection`1 entitySets, EdmType[] edmTypes, ExecutionOptions executionOptions)
   at System.Data.Entity.Core.Objects.ObjectContext.<>c__DisplayClass47`1.<ExecuteFunction>b__46()
   at System.Data.Entity.Core.Objects.ObjectContext.ExecuteInTransaction[T](Func`1 func, IDbExecutionStrategy executionStrategy, Boolean startLocalTransaction, Boolean releaseConnectionOnSuccess)
   at System.Data.Entity.Core.Objects.ObjectContext.<>c__DisplayClass47`1.<ExecuteFunction>b__45()
   at System.Data.Entity.SqlServer.DefaultSqlExecutionStrategy.Execute[TResult](Func`1 operation)
   at System.Data.Entity.Core.Objects.ObjectContext.ExecuteFunction[TElement](String functionName, ExecutionOptions executionOptions, ObjectParameter[] parameters)
   at System.Data.Entity.Core.Objects.ObjectContext.ExecuteFunction[TElement](String functionName, MergeOption mergeOption, ObjectParameter[] parameters)
   at System.Data.Entity.Core.Objects.ObjectContext.ExecuteFunction[TElement](String functionName, ObjectParameter[] parameters)
   at SwaranAdmin_New.DataManager.BATransferEntities.CustomerSearchNew(String sEARCHWORD) in E:\BaTransfer_Full_Project\SwaranAdmin\SwaranAdmin\SwaranAdmin_New\DataManager\BATransfer.Context.cs:line 594
   at SwaranAdmin_New.DataAccess.MemberDal.CustomerSearch(String search) in E:\BaTransfer_Full_Project\SwaranAdmin\SwaranAdmin\SwaranAdmin_New\DataAccess\MemberDal.cs:line 281



--------CustomerSearch-------------------CustomerSearch-----07/01/2019 17:48:05---------------------------CustomerSearch------------------CustomerSearch-------------

An error occurred while executing the command definition. See the inner exception for details.
----------------------------------------------INNER EXCEPTION--------------------------------------------------------------------------------------------------------------------------
Execution Timeout Expired.  The timeout period elapsed prior to completion of the operation or the server is not responding.
----------------------------------------------STACK-TRACE------------------------------------------------------------------------------------------------------------------------------
   at System.Data.Entity.Core.EntityClient.Internal.EntityCommandDefinition.ExecuteStoreCommands(EntityCommand entityCommand, CommandBehavior behavior)
   at System.Data.Entity.Core.Objects.ObjectContext.CreateFunctionObjectResult[TElement](EntityCommand entityCommand, ReadOnlyCollection`1 entitySets, EdmType[] edmTypes, ExecutionOptions executionOptions)
   at System.Data.Entity.Core.Objects.ObjectContext.<>c__DisplayClass47`1.<ExecuteFunction>b__46()
   at System.Data.Entity.Core.Objects.ObjectContext.ExecuteInTransaction[T](Func`1 func, IDbExecutionStrategy executionStrategy, Boolean startLocalTransaction, Boolean releaseConnectionOnSuccess)
   at System.Data.Entity.Core.Objects.ObjectContext.<>c__DisplayClass47`1.<ExecuteFunction>b__45()
   at System.Data.Entity.SqlServer.DefaultSqlExecutionStrategy.Execute[TResult](Func`1 operation)
   at System.Data.Entity.Core.Objects.ObjectContext.ExecuteFunction[TElement](String functionName, ExecutionOptions executionOptions, ObjectParameter[] parameters)
   at System.Data.Entity.Core.Objects.ObjectContext.ExecuteFunction[TElement](String functionName, MergeOption mergeOption, ObjectParameter[] parameters)
   at System.Data.Entity.Core.Objects.ObjectContext.ExecuteFunction[TElement](String functionName, ObjectParameter[] parameters)
   at SwaranAdmin_New.DataManager.BATransferEntities.CustomerSearchNew(String sEARCHWORD) in E:\BaTransfer_Full_Project\SwaranAdmin\SwaranAdmin\SwaranAdmin_New\DataManager\BATransfer.Context.cs:line 594
   at SwaranAdmin_New.DataAccess.MemberDal.CustomerSearch(String search) in E:\BaTransfer_Full_Project\SwaranAdmin\SwaranAdmin\SwaranAdmin_New\DataAccess\MemberDal.cs:line 281



--------CustomerSearch-------------------CustomerSearch-----07/01/2019 17:56:58---------------------------CustomerSearch------------------CustomerSearch-------------

An error occurred while executing the command definition. See the inner exception for details.
----------------------------------------------INNER EXCEPTION--------------------------------------------------------------------------------------------------------------------------
Execution Timeout Expired.  The timeout period elapsed prior to completion of the operation or the server is not responding.
----------------------------------------------STACK-TRACE------------------------------------------------------------------------------------------------------------------------------
   at System.Data.Entity.Core.EntityClient.Internal.EntityCommandDefinition.ExecuteStoreCommands(EntityCommand entityCommand, CommandBehavior behavior)
   at System.Data.Entity.Core.Objects.ObjectContext.CreateFunctionObjectResult[TElement](EntityCommand entityCommand, ReadOnlyCollection`1 entitySets, EdmType[] edmTypes, ExecutionOptions executionOptions)
   at System.Data.Entity.Core.Objects.ObjectContext.<>c__DisplayClass47`1.<ExecuteFunction>b__46()
   at System.Data.Entity.Core.Objects.ObjectContext.ExecuteInTransaction[T](Func`1 func, IDbExecutionStrategy executionStrategy, Boolean startLocalTransaction, Boolean releaseConnectionOnSuccess)
   at System.Data.Entity.Core.Objects.ObjectContext.<>c__DisplayClass47`1.<ExecuteFunction>b__45()
   at System.Data.Entity.SqlServer.DefaultSqlExecutionStrategy.Execute[TResult](Func`1 operation)
   at System.Data.Entity.Core.Objects.ObjectContext.ExecuteFunction[TElement](String functionName, ExecutionOptions executionOptions, ObjectParameter[] parameters)
   at System.Data.Entity.Core.Objects.ObjectContext.ExecuteFunction[TElement](String functionName, MergeOption mergeOption, ObjectParameter[] parameters)
   at System.Data.Entity.Core.Objects.ObjectContext.ExecuteFunction[TElement](String functionName, ObjectParameter[] parameters)
   at SwaranAdmin_New.DataManager.BATransferEntities.CustomerSearchNew(String sEARCHWORD) in E:\BaTransfer_Full_Project\SwaranAdmin\SwaranAdmin\SwaranAdmin_New\DataManager\BATransfer.Context.cs:line 594
   at SwaranAdmin_New.DataAccess.MemberDal.CustomerSearch(String search) in E:\BaTransfer_Full_Project\SwaranAdmin\SwaranAdmin\SwaranAdmin_New\DataAccess\MemberDal.cs:line 281



--------CustomerSearch-------------------CustomerSearch-----07/01/2019 17:57:00---------------------------CustomerSearch------------------CustomerSearch-------------

An error occurred while executing the command definition. See the inner exception for details.
----------------------------------------------INNER EXCEPTION--------------------------------------------------------------------------------------------------------------------------
Execution Timeout Expired.  The timeout period elapsed prior to completion of the operation or the server is not responding.
----------------------------------------------STACK-TRACE------------------------------------------------------------------------------------------------------------------------------
   at System.Data.Entity.Core.EntityClient.Internal.EntityCommandDefinition.ExecuteStoreCommands(EntityCommand entityCommand, CommandBehavior behavior)
   at System.Data.Entity.Core.Objects.ObjectContext.CreateFunctionObjectResult[TElement](EntityCommand entityCommand, ReadOnlyCollection`1 entitySets, EdmType[] edmTypes, ExecutionOptions executionOptions)
   at System.Data.Entity.Core.Objects.ObjectContext.<>c__DisplayClass47`1.<ExecuteFunction>b__46()
   at System.Data.Entity.Core.Objects.ObjectContext.ExecuteInTransaction[T](Func`1 func, IDbExecutionStrategy executionStrategy, Boolean startLocalTransaction, Boolean releaseConnectionOnSuccess)
   at System.Data.Entity.Core.Objects.ObjectContext.<>c__DisplayClass47`1.<ExecuteFunction>b__45()
   at System.Data.Entity.SqlServer.DefaultSqlExecutionStrategy.Execute[TResult](Func`1 operation)
   at System.Data.Entity.Core.Objects.ObjectContext.ExecuteFunction[TElement](String functionName, ExecutionOptions executionOptions, ObjectParameter[] parameters)
   at System.Data.Entity.Core.Objects.ObjectContext.ExecuteFunction[TElement](String functionName, MergeOption mergeOption, ObjectParameter[] parameters)
   at System.Data.Entity.Core.Objects.ObjectContext.ExecuteFunction[TElement](String functionName, ObjectParameter[] parameters)
   at SwaranAdmin_New.DataManager.BATransferEntities.CustomerSearchNew(String sEARCHWORD) in E:\BaTransfer_Full_Project\SwaranAdmin\SwaranAdmin\SwaranAdmin_New\DataManager\BATransfer.Context.cs:line 594
   at SwaranAdmin_New.DataAccess.MemberDal.CustomerSearch(String search) in E:\BaTransfer_Full_Project\SwaranAdmin\SwaranAdmin\SwaranAdmin_New\DataAccess\MemberDal.cs:line 281



--------CustomerSearch-------------------CustomerSearch-----07/01/2019 17:57:00---------------------------CustomerSearch------------------CustomerSearch-------------

An error occurred while executing the command definition. See the inner exception for details.
----------------------------------------------INNER EXCEPTION--------------------------------------------------------------------------------------------------------------------------
Execution Timeout Expired.  The timeout period elapsed prior to completion of the operation or the server is not responding.
----------------------------------------------STACK-TRACE------------------------------------------------------------------------------------------------------------------------------
   at System.Data.Entity.Core.EntityClient.Internal.EntityCommandDefinition.ExecuteStoreCommands(EntityCommand entityCommand, CommandBehavior behavior)
   at System.Data.Entity.Core.Objects.ObjectContext.CreateFunctionObjectResult[TElement](EntityCommand entityCommand, ReadOnlyCollection`1 entitySets, EdmType[] edmTypes, ExecutionOptions executionOptions)
   at System.Data.Entity.Core.Objects.ObjectContext.<>c__DisplayClass47`1.<ExecuteFunction>b__46()
   at System.Data.Entity.Core.Objects.ObjectContext.ExecuteInTransaction[T](Func`1 func, IDbExecutionStrategy executionStrategy, Boolean startLocalTransaction, Boolean releaseConnectionOnSuccess)
   at System.Data.Entity.Core.Objects.ObjectContext.<>c__DisplayClass47`1.<ExecuteFunction>b__45()
   at System.Data.Entity.SqlServer.DefaultSqlExecutionStrategy.Execute[TResult](Func`1 operation)
   at System.Data.Entity.Core.Objects.ObjectContext.ExecuteFunction[TElement](String functionName, ExecutionOptions executionOptions, ObjectParameter[] parameters)
   at System.Data.Entity.Core.Objects.ObjectContext.ExecuteFunction[TElement](String functionName, MergeOption mergeOption, ObjectParameter[] parameters)
   at System.Data.Entity.Core.Objects.ObjectContext.ExecuteFunction[TElement](String functionName, ObjectParameter[] parameters)
   at SwaranAdmin_New.DataManager.BATransferEntities.CustomerSearchNew(String sEARCHWORD) in E:\BaTransfer_Full_Project\SwaranAdmin\SwaranAdmin\SwaranAdmin_New\DataManager\BATransfer.Context.cs:line 594
   at SwaranAdmin_New.DataAccess.MemberDal.CustomerSearch(String search) in E:\BaTransfer_Full_Project\SwaranAdmin\SwaranAdmin\SwaranAdmin_New\DataAccess\MemberDal.cs:line 281



--------CustomerSearch-------------------CustomerSearch-----07/01/2019 17:57:01---------------------------CustomerSearch------------------CustomerSearch-------------

An error occurred while executing the command definition. See the inner exception for details.
----------------------------------------------INNER EXCEPTION--------------------------------------------------------------------------------------------------------------------------
Execution Timeout Expired.  The timeout period elapsed prior to completion of the operation or the server is not responding.
----------------------------------------------STACK-TRACE------------------------------------------------------------------------------------------------------------------------------
   at System.Data.Entity.Core.EntityClient.Internal.EntityCommandDefinition.ExecuteStoreCommands(EntityCommand entityCommand, CommandBehavior behavior)
   at System.Data.Entity.Core.Objects.ObjectContext.CreateFunctionObjectResult[TElement](EntityCommand entityCommand, ReadOnlyCollection`1 entitySets, EdmType[] edmTypes, ExecutionOptions executionOptions)
   at System.Data.Entity.Core.Objects.ObjectContext.<>c__DisplayClass47`1.<ExecuteFunction>b__46()
   at System.Data.Entity.Core.Objects.ObjectContext.ExecuteInTransaction[T](Func`1 func, IDbExecutionStrategy executionStrategy, Boolean startLocalTransaction, Boolean releaseConnectionOnSuccess)
   at System.Data.Entity.Core.Objects.ObjectContext.<>c__DisplayClass47`1.<ExecuteFunction>b__45()
   at System.Data.Entity.SqlServer.DefaultSqlExecutionStrategy.Execute[TResult](Func`1 operation)
   at System.Data.Entity.Core.Objects.ObjectContext.ExecuteFunction[TElement](String functionName, ExecutionOptions executionOptions, ObjectParameter[] parameters)
   at System.Data.Entity.Core.Objects.ObjectContext.ExecuteFunction[TElement](String functionName, MergeOption mergeOption, ObjectParameter[] parameters)
   at System.Data.Entity.Core.Objects.ObjectContext.ExecuteFunction[TElement](String functionName, ObjectParameter[] parameters)
   at SwaranAdmin_New.DataManager.BATransferEntities.CustomerSearchNew(String sEARCHWORD) in E:\BaTransfer_Full_Project\SwaranAdmin\SwaranAdmin\SwaranAdmin_New\DataManager\BATransfer.Context.cs:line 594
   at SwaranAdmin_New.DataAccess.MemberDal.CustomerSearch(String search) in E:\BaTransfer_Full_Project\SwaranAdmin\SwaranAdmin\SwaranAdmin_New\DataAccess\MemberDal.cs:line 281



--------CustomerSearch-------------------CustomerSearch-----07/01/2019 17:57:02---------------------------CustomerSearch------------------CustomerSearch-------------

An error occurred while executing the command definition. See the inner exception for details.
----------------------------------------------INNER EXCEPTION--------------------------------------------------------------------------------------------------------------------------
Execution Timeout Expired.  The timeout period elapsed prior to completion of the operation or the server is not responding.
----------------------------------------------STACK-TRACE------------------------------------------------------------------------------------------------------------------------------
   at System.Data.Entity.Core.EntityClient.Internal.EntityCommandDefinition.ExecuteStoreCommands(EntityCommand entityCommand, CommandBehavior behavior)
   at System.Data.Entity.Core.Objects.ObjectContext.CreateFunctionObjectResult[TElement](EntityCommand entityCommand, ReadOnlyCollection`1 entitySets, EdmType[] edmTypes, ExecutionOptions executionOptions)
   at System.Data.Entity.Core.Objects.ObjectContext.<>c__DisplayClass47`1.<ExecuteFunction>b__46()
   at System.Data.Entity.Core.Objects.ObjectContext.ExecuteInTransaction[T](Func`1 func, IDbExecutionStrategy executionStrategy, Boolean startLocalTransaction, Boolean releaseConnectionOnSuccess)
   at System.Data.Entity.Core.Objects.ObjectContext.<>c__DisplayClass47`1.<ExecuteFunction>b__45()
   at System.Data.Entity.SqlServer.DefaultSqlExecutionStrategy.Execute[TResult](Func`1 operation)
   at System.Data.Entity.Core.Objects.ObjectContext.ExecuteFunction[TElement](String functionName, ExecutionOptions executionOptions, ObjectParameter[] parameters)
   at System.Data.Entity.Core.Objects.ObjectContext.ExecuteFunction[TElement](String functionName, MergeOption mergeOption, ObjectParameter[] parameters)
   at System.Data.Entity.Core.Objects.ObjectContext.ExecuteFunction[TElement](String functionName, ObjectParameter[] parameters)
   at SwaranAdmin_New.DataManager.BATransferEntities.CustomerSearchNew(String sEARCHWORD) in E:\BaTransfer_Full_Project\SwaranAdmin\SwaranAdmin\SwaranAdmin_New\DataManager\BATransfer.Context.cs:line 594
   at SwaranAdmin_New.DataAccess.MemberDal.CustomerSearch(String search) in E:\BaTransfer_Full_Project\SwaranAdmin\SwaranAdmin\SwaranAdmin_New\DataAccess\MemberDal.cs:line 281



--------CustomerSearch-------------------CustomerSearch-----07/01/2019 17:57:03---------------------------CustomerSearch------------------CustomerSearch-------------

An error occurred while executing the command definition. See the inner exception for details.
----------------------------------------------INNER EXCEPTION--------------------------------------------------------------------------------------------------------------------------
Execution Timeout Expired.  The timeout period elapsed prior to completion of the operation or the server is not responding.
----------------------------------------------STACK-TRACE------------------------------------------------------------------------------------------------------------------------------
   at System.Data.Entity.Core.EntityClient.Internal.EntityCommandDefinition.ExecuteStoreCommands(EntityCommand entityCommand, CommandBehavior behavior)
   at System.Data.Entity.Core.Objects.ObjectContext.CreateFunctionObjectResult[TElement](EntityCommand entityCommand, ReadOnlyCollection`1 entitySets, EdmType[] edmTypes, ExecutionOptions executionOptions)
   at System.Data.Entity.Core.Objects.ObjectContext.<>c__DisplayClass47`1.<ExecuteFunction>b__46()
   at System.Data.Entity.Core.Objects.ObjectContext.ExecuteInTransaction[T](Func`1 func, IDbExecutionStrategy executionStrategy, Boolean startLocalTransaction, Boolean releaseConnectionOnSuccess)
   at System.Data.Entity.Core.Objects.ObjectContext.<>c__DisplayClass47`1.<ExecuteFunction>b__45()
   at System.Data.Entity.SqlServer.DefaultSqlExecutionStrategy.Execute[TResult](Func`1 operation)
   at System.Data.Entity.Core.Objects.ObjectContext.ExecuteFunction[TElement](String functionName, ExecutionOptions executionOptions, ObjectParameter[] parameters)
   at System.Data.Entity.Core.Objects.ObjectContext.ExecuteFunction[TElement](String functionName, MergeOption mergeOption, ObjectParameter[] parameters)
   at System.Data.Entity.Core.Objects.ObjectContext.ExecuteFunction[TElement](String functionName, ObjectParameter[] parameters)
   at SwaranAdmin_New.DataManager.BATransferEntities.CustomerSearchNew(String sEARCHWORD) in E:\BaTransfer_Full_Project\SwaranAdmin\SwaranAdmin\SwaranAdmin_New\DataManager\BATransfer.Context.cs:line 594
   at SwaranAdmin_New.DataAccess.MemberDal.CustomerSearch(String search) in E:\BaTransfer_Full_Project\SwaranAdmin\SwaranAdmin\SwaranAdmin_New\DataAccess\MemberDal.cs:line 281



--------CustomerSearch-------------------CustomerSearch-----07/01/2019 17:57:04---------------------------CustomerSearch------------------CustomerSearch-------------

An error occurred while executing the command definition. See the inner exception for details.
----------------------------------------------INNER EXCEPTION--------------------------------------------------------------------------------------------------------------------------
Execution Timeout Expired.  The timeout period elapsed prior to completion of the operation or the server is not responding.
----------------------------------------------STACK-TRACE------------------------------------------------------------------------------------------------------------------------------
   at System.Data.Entity.Core.EntityClient.Internal.EntityCommandDefinition.ExecuteStoreCommands(EntityCommand entityCommand, CommandBehavior behavior)
   at System.Data.Entity.Core.Objects.ObjectContext.CreateFunctionObjectResult[TElement](EntityCommand entityCommand, ReadOnlyCollection`1 entitySets, EdmType[] edmTypes, ExecutionOptions executionOptions)
   at System.Data.Entity.Core.Objects.ObjectContext.<>c__DisplayClass47`1.<ExecuteFunction>b__46()
   at System.Data.Entity.Core.Objects.ObjectContext.ExecuteInTransaction[T](Func`1 func, IDbExecutionStrategy executionStrategy, Boolean startLocalTransaction, Boolean releaseConnectionOnSuccess)
   at System.Data.Entity.Core.Objects.ObjectContext.<>c__DisplayClass47`1.<ExecuteFunction>b__45()
   at System.Data.Entity.SqlServer.DefaultSqlExecutionStrategy.Execute[TResult](Func`1 operation)
   at System.Data.Entity.Core.Objects.ObjectContext.ExecuteFunction[TElement](String functionName, ExecutionOptions executionOptions, ObjectParameter[] parameters)
   at System.Data.Entity.Core.Objects.ObjectContext.ExecuteFunction[TElement](String functionName, MergeOption mergeOption, ObjectParameter[] parameters)
   at System.Data.Entity.Core.Objects.ObjectContext.ExecuteFunction[TElement](String functionName, ObjectParameter[] parameters)
   at SwaranAdmin_New.DataManager.BATransferEntities.CustomerSearchNew(String sEARCHWORD) in E:\BaTransfer_Full_Project\SwaranAdmin\SwaranAdmin\SwaranAdmin_New\DataManager\BATransfer.Context.cs:line 594
   at SwaranAdmin_New.DataAccess.MemberDal.CustomerSearch(String search) in E:\BaTransfer_Full_Project\SwaranAdmin\SwaranAdmin\SwaranAdmin_New\DataAccess\MemberDal.cs:line 281



--------CustomerSearch-------------------CustomerSearch-----07/01/2019 17:57:05---------------------------CustomerSearch------------------CustomerSearch-------------

An error occurred while executing the command definition. See the inner exception for details.
----------------------------------------------INNER EXCEPTION--------------------------------------------------------------------------------------------------------------------------
Execution Timeout Expired.  The timeout period elapsed prior to completion of the operation or the server is not responding.
----------------------------------------------STACK-TRACE------------------------------------------------------------------------------------------------------------------------------
   at System.Data.Entity.Core.EntityClient.Internal.EntityCommandDefinition.ExecuteStoreCommands(EntityCommand entityCommand, CommandBehavior behavior)
   at System.Data.Entity.Core.Objects.ObjectContext.CreateFunctionObjectResult[TElement](EntityCommand entityCommand, ReadOnlyCollection`1 entitySets, EdmType[] edmTypes, ExecutionOptions executionOptions)
   at System.Data.Entity.Core.Objects.ObjectContext.<>c__DisplayClass47`1.<ExecuteFunction>b__46()
   at System.Data.Entity.Core.Objects.ObjectContext.ExecuteInTransaction[T](Func`1 func, IDbExecutionStrategy executionStrategy, Boolean startLocalTransaction, Boolean releaseConnectionOnSuccess)
   at System.Data.Entity.Core.Objects.ObjectContext.<>c__DisplayClass47`1.<ExecuteFunction>b__45()
   at System.Data.Entity.SqlServer.DefaultSqlExecutionStrategy.Execute[TResult](Func`1 operation)
   at System.Data.Entity.Core.Objects.ObjectContext.ExecuteFunction[TElement](String functionName, ExecutionOptions executionOptions, ObjectParameter[] parameters)
   at System.Data.Entity.Core.Objects.ObjectContext.ExecuteFunction[TElement](String functionName, MergeOption mergeOption, ObjectParameter[] parameters)
   at System.Data.Entity.Core.Objects.ObjectContext.ExecuteFunction[TElement](String functionName, ObjectParameter[] parameters)
   at SwaranAdmin_New.DataManager.BATransferEntities.CustomerSearchNew(String sEARCHWORD) in E:\BaTransfer_Full_Project\SwaranAdmin\SwaranAdmin\SwaranAdmin_New\DataManager\BATransfer.Context.cs:line 594
   at SwaranAdmin_New.DataAccess.MemberDal.CustomerSearch(String search) in E:\BaTransfer_Full_Project\SwaranAdmin\SwaranAdmin\SwaranAdmin_New\DataAccess\MemberDal.cs:line 281



--------CustomerSearch-------------------CustomerSearch-----07/01/2019 17:57:06---------------------------CustomerSearch------------------CustomerSearch-------------

An error occurred while executing the command definition. See the inner exception for details.
----------------------------------------------INNER EXCEPTION--------------------------------------------------------------------------------------------------------------------------
Execution Timeout Expired.  The timeout period elapsed prior to completion of the operation or the server is not responding.
----------------------------------------------STACK-TRACE------------------------------------------------------------------------------------------------------------------------------
   at System.Data.Entity.Core.EntityClient.Internal.EntityCommandDefinition.ExecuteStoreCommands(EntityCommand entityCommand, CommandBehavior behavior)
   at System.Data.Entity.Core.Objects.ObjectContext.CreateFunctionObjectResult[TElement](EntityCommand entityCommand, ReadOnlyCollection`1 entitySets, EdmType[] edmTypes, ExecutionOptions executionOptions)
   at System.Data.Entity.Core.Objects.ObjectContext.<>c__DisplayClass47`1.<ExecuteFunction>b__46()
   at System.Data.Entity.Core.Objects.ObjectContext.ExecuteInTransaction[T](Func`1 func, IDbExecutionStrategy executionStrategy, Boolean startLocalTransaction, Boolean releaseConnectionOnSuccess)
   at System.Data.Entity.Core.Objects.ObjectContext.<>c__DisplayClass47`1.<ExecuteFunction>b__45()
   at System.Data.Entity.SqlServer.DefaultSqlExecutionStrategy.Execute[TResult](Func`1 operation)
   at System.Data.Entity.Core.Objects.ObjectContext.ExecuteFunction[TElement](String functionName, ExecutionOptions executionOptions, ObjectParameter[] parameters)
   at System.Data.Entity.Core.Objects.ObjectContext.ExecuteFunction[TElement](String functionName, MergeOption mergeOption, ObjectParameter[] parameters)
   at System.Data.Entity.Core.Objects.ObjectContext.ExecuteFunction[TElement](String functionName, ObjectParameter[] parameters)
   at SwaranAdmin_New.DataManager.BATransferEntities.CustomerSearchNew(String sEARCHWORD) in E:\BaTransfer_Full_Project\SwaranAdmin\SwaranAdmin\SwaranAdmin_New\DataManager\BATransfer.Context.cs:line 594
   at SwaranAdmin_New.DataAccess.MemberDal.CustomerSearch(String search) in E:\BaTransfer_Full_Project\SwaranAdmin\SwaranAdmin\SwaranAdmin_New\DataAccess\MemberDal.cs:line 281



