--------NEW Ip-> 192.168.8.100-------------------NEW Ip-> 192.168.8.100-----16/02/2019 18:55:22---------------------------NEW Ip-> 192.168.8.100------------------NEW Ip-> 192.168.8.100-------------

NEW IP -> 192.168.8.100
----------------------------------------------INNER EXCEPTION--------------------------------------------------------------------------------------------------------------------------
NEW Ip-> 192.168.8.100
----------------------------------------------STACK-TRACE------------------------------------------------------------------------------------------------------------------------------
NEW IP ->192.168.8.100



--------NEW Ip-> 192.168.8.100-------------------NEW Ip-> 192.168.8.100-----16/02/2019 18:55:27---------------------------NEW Ip-> 192.168.8.100------------------NEW Ip-> 192.168.8.100-------------

NEW IP -> 192.168.8.100
----------------------------------------------INNER EXCEPTION--------------------------------------------------------------------------------------------------------------------------
NEW Ip-> 192.168.8.100
----------------------------------------------STACK-TRACE------------------------------------------------------------------------------------------------------------------------------
NEW IP ->192.168.8.100



--------GetResrvationByStatus-------------------GetResrvationByStatus-----16/02/2019 18:58:04---------------------------GetResrvationByStatus------------------GetResrvationByStatus-------------

An exception has been raised that is likely due to a transient failure. If you are connecting to a SQL Azure database consider using SqlAzureExecutionStrategy.
----------------------------------------------INNER EXCEPTION--------------------------------------------------------------------------------------------------------------------------
The underlying provider failed on Open.
----------------------------------------------STACK-TRACE------------------------------------------------------------------------------------------------------------------------------
   at System.Data.Entity.SqlServer.DefaultSqlExecutionStrategy.Execute[TResult](Func`1 operation)
   at System.Data.Entity.Core.Objects.ObjectContext.ExecuteFunction[TElement](String functionName, ExecutionOptions executionOptions, ObjectParameter[] parameters)
   at System.Data.Entity.Core.Objects.ObjectContext.ExecuteFunction[TElement](String functionName, MergeOption mergeOption, ObjectParameter[] parameters)
   at System.Data.Entity.Core.Objects.ObjectContext.ExecuteFunction[TElement](String functionName, ObjectParameter[] parameters)
   at SwaranAdmin_New.DataManager.BATransferEntities.sp_swaran_search_by_bookingstatus(Nullable`1 bOOKINGSTATUS, Nullable`1 cONFIRMEDTIME) in E:\BaTransfer_Full_Project\SwaranAdmin\SwaranAdmin\SwaranAdmin_New\DataManager\BATransfer.Context.cs:line 2053
   at SwaranAdmin_New.DataAccess.ReservationDal.GetResrvationByStatus(Int32 bookingStatus) in E:\BaTransfer_Full_Project\SwaranAdmin\SwaranAdmin\SwaranAdmin_New\DataAccess\ReservationDal.cs:line 79



