﻿

<!-- end #container -->
<div class="form-area" style="width:97%; float: left; font-size:17px; padding-left: 20px; margin-bottom:20px; border-bottom:1px solid #CCCCCC;">
<!--<div class="form-left" style="float:left; width:47%; color:#666666;">-->
   <div class="additional_details" style="width:100%; border-bottom:1px solid #CCCCCC;">
      <div class="titile-area" style="float:left; width: 100%; background:#656667; ">
         <h2 style="color:#fff; line-height: 0px; text-align: center; font-weight: 800; font-size: 20px; text-transform:capitalize; padding: 5px;">Journey Details</h2>
      </div>
      <div class="form-area" style="width:97%; float: left; font-size:15px; margin-bottom:20px;">
         <div class="form-left" style="float:left; width:20%; color:#666666; font-weight:600; line-height: 10px;">
            <p style="margin-top:10px;">Pickup Date<span style="float:right;">:</span></p>
            <p style="margin-top:10px; ">Pickup <span style="float:right;">:</span></p>
            <p style="margin-top:10px; ">DropOff  <span style="float:right;">:</span></p>
         </div>
         <div class="form-right" style="color:#666666; margin-left:10px; width: 75%; float: left; line-height: 10px;">
            <p style="margin-top:10px; ">BOOKING-DATE-TIME</p>
            <p style="margin-top:10px; ">FROM-ADDRESS</p>
            <p style="margin-top:10px; ">TO-ADDRESS</p>
         </div>
      </div>
  <!-- </div> -->
  VIA-POINTS
</div>
<div style="clear: both;"></div>


        <!--  <div class="form-area" style="width:97%; float: left; font-size:17px; padding-left: 20px; margin-bottom:20px; border-bottom:1px solid #CCCCCC;">
   <div class="form-left" style="float:left; width:47%; color:#666666;">
      <div class="additional_details" style="width:100%; border-bottom:1px solid #CCCCCC;">
         <div class="titile-area" style="float:left; width: 100%; background:#656667; ">
            <h2 style="color:#fff; line-height: 0px; text-align: center; font-weight: 800; font-size: 20px; text-transform:capitalize; padding-left: 20px;">Journey Details</h2>
         </div>
         <div class="form-area" style="width:97%; float: left; font-size:15px; margin-bottom:20px;">
            <div class="form-left" style="float:left; width:32%; color:#666666; font-weight:600; line-height: 5px;">
               <p style="margin-top:15px; margin-bottom: 5px;">Pickup Date<span style="float:right;">:</span></p>
               <p style="margin-top:13px; margin-bottom: 5px;">Pickup <span style="float:right;">:</span></p>
               <p style="margin-top:28px; margin-bottom: 5px;">DropOff  <span style="float:right;">:</span></p>
            </div>
            <div class="form-right" style="color:#666666; margin-left:10px; width: 63%; float: left; line-height: 16px;">
               <p style="margin-top:10px; margin-bottom: 5px;">BOOKING-DATE-TIME</p>
               <p style="margin-top:0px; margin-bottom: 5px;">FROM-ADDRESS</p>
               <p style="margin-top:0px; margin-bottom: 5px;">TO-ADDRESS</p>
            </div>
         </div>
      </div>
   </div>

   <div style="clear: both;"></div>-->
